UMD report
…
## Warning: 2 parsing failures.
##   row    col           expected actual                                                                                                                                         file
## 51529 Field1 1/0/T/F/TRUE/FALSE `1     'https://raw.githubusercontent.com/datasci611/bios611-projects-fall-2019-YaoYuxiao/master/project_1/data/UMD_Services_Provided_20190719.tsv'
## 57939 Field2 1/0/T/F/TRUE/FALSE 111813 'https://raw.githubusercontent.com/datasci611/bios611-projects-fall-2019-YaoYuxiao/master/project_1/data/UMD_Services_Provided_20190719.tsv'

# convert the data type into Date
raw$Date<-as.Date(raw$Date,format="%m/%d/%Y")
#preparation: rename variables and filter by time
data=raw %>%
  rename('id'='Client File Number','Food'='Food Pounds','Clothing'='Clothing Items',
         'Schoolkits'='School Kits','Money'='Financial Support')%>%
  filter(Date>="1998-01-01" & Date<="2018-12-31")
data

## # A tibble: 76,550 x 18
##    Date          id `Client File Me~ `Bus Tickets (N~ `Notes of Servi~
##    <date>     <dbl>            <dbl>            <dbl> <chr>           
##  1 2009-01-22   212                0               NA <NA>            
##  2 2009-01-29   738                0               NA <NA>            
##  3 2009-01-20  3455                0               NA <NA>            
##  4 2002-11-26  1804            21804               NA <NA>            
##  5 2002-12-02  1806            21806               NA <NA>            
##  6 2002-10-10  1614            21614               NA financial refer~
##  7 2002-09-26  1758            21758               NA Financial Refer~
##  8 2008-02-19  1814                0               NA <NA>            
##  9 2002-10-10   522            20522               NA greyhound ticket
## 10 2002-09-04  1356            21356               10 <NA>            
## # ... with 76,540 more rows, and 13 more variables: `Food Provided
## #   for` <dbl>, Food <dbl>, Clothing <dbl>, Diapers <dbl>,
## #   Schoolkits <dbl>, `Hygiene Kits` <dbl>, Referrals <chr>, Money <dbl>,
## #   `Type of Bill Paid` <chr>, `Payer of Support` <chr>, Field1 <lgl>,
## #   Field2 <lgl>, Field3 <lgl>
…
client_yearly=client %>%
  separate(Date, sep = "-", into = c("Year", "Month", "Day"))%>%
  group_by(Year) %>%
  summarise(client_sum=n())

client_yearly

## # A tibble: 21 x 2
##    Year  client_sum
##    <chr>      <int>
##  1 1998          16
##  2 1999         140
##  3 2000          85
##  4 2001         473
##  5 2002         955
##  6 2003         799
##  7 2004         667
##  8 2005         616
##  9 2006         676
## 10 2007         685
## # ... with 11 more rows
…
Assumingly, clients need more food in winter than summer. This could be helpful for UMD to get prepared by knowing how many food pounds should be collected each month.

food_group= data %>%
  select(Date, 'Food')%>%
  drop_na() %>%
  filter(Date>="2008-01-01"&Date<="2017-12-31")%>% # focus on ten years(2008-2017)because of abnormal data in June 2018
  separate(Date, sep = "-", into = c("Year", "Month", "Day"))%>%
  group_by(Year,Month)%>%
  summarise(num=n(),mean=mean(Food))%>%
  mutate(sum=num*mean)%>%
  arrange(desc(Year))

food_group

## # A tibble: 120 x 5
## # Groups:   Year [10]
##    Year  Month   num  mean   sum
##    <chr> <chr> <int> <dbl> <dbl>
##  1 2017  01      438  24.8 10875
##  2 2017  02      387  25.2  9770
##  3 2017  03      453  23.9 10845
##  4 2017  04      403  22.2  8935
##  5 2017  05      483  23.0 11132
##  6 2017  06      491  23.8 11695
##  7 2017  07      421  22.9  9635
##  8 2017  08      500  24.6 12287
##  9 2017  09      442  22.7 10049
## 10 2017  10      544  20.8 11340
## # ... with 110 more rows
…
Problem 3: How many clothing items are provided each month from 2008 to 2017? Is there a seasonality?

clothing_group= data %>%
  select(Date, 'Clothing')%>%
  drop_na() %>%
  filter(Date>="2008-01-01"&Date<="2017-12-31")%>% # focus on ten years(2008-2017)because of abnormal data in June 2018
  separate(Date, sep = "-", into = c("Year", "Month", "Day"))%>%
  group_by(Year,Month)%>%
  summarise(num=n(),mean=mean(Clothing))%>%
  mutate(sum=num*mean)%>%
  arrange(desc(Year))

clothing_group

## # A tibble: 120 x 5
## # Groups:   Year [10]
##    Year  Month   num  mean   sum
##    <chr> <chr> <int> <dbl> <dbl>
##  1 2017  01      425  9.45 4017.
##  2 2017  02      377  8.76 3302 
##  3 2017  03      445  8.65 3850 
##  4 2017  04      398  8.03 3197.
##  5 2017  05      479  8.20 3928 
##  6 2017  06      484  8.62 4173 
##  7 2017  07      417  8.01 3340 
##  8 2017  08      490  7.91 3877 
##  9 2017  09      434  6.74 2925 
## 10 2017  10      534  6.76 3609 
## # ... with 110 more rows
…
